cand1

cand4

cand2

cand3

cand3

cand3

cand3

cand1

cand4

cand2

cand1

cand1

cand6

cand5

cand2
cand3

cand5
cand6

cand1

cand1

cand4

cand3

cand1

cand2
cand4

cand3

cand4

cand8

cand2

cand1
cand2

cand3

cand6

cand2
